dotwhisker: Dot-and-Whisker Plots of Regression Results
…
# Relabel predictors (they will appear as facet labels)
by_trans <- by_trans %>% dplyr::select(-submodel, everything(), submodel) %>% 
  relabel_predictors(c("(Intercept)" = "Intercept",
                     wt = "Weight",
                     cyl = "Cylinders",
                     disp = "Displacement",
                     hp = "Horsepower",
                     gear = "Gears"))

by_trans

## Source: local data frame [40 x 7]
## Groups: submodel [2]
## 
##         term   estimate std.error  statistic      p.value   model submodel
##        <chr>      <dbl>     <dbl>      <dbl>        <dbl>   <chr>    <dbl>
## 1  Intercept 31.4160554 2.9467213 10.6613596 6.007748e-09 Model 1        0
## 2     Weight -3.7859075 0.7665567 -4.9388485 1.245595e-04 Model 1        0
## 3  Intercept 46.2944779 3.1198212 14.8388241 1.276849e-08 Model 1        1
## 4     Weight -9.0842680 1.2565727 -7.2294008 1.687904e-05 Model 1        1
## 5  Intercept 34.5680688 2.4820606 13.9271656 2.312644e-10 Model 2        0
## 6     Weight -2.2280342 0.7523460 -2.9614487 9.188908e-03 Model 2        0
## 7  Cylinders -1.2988334 0.3786433 -3.4302297 3.433942e-03 Model 2        0
## 8  Intercept 46.2457474 3.1660012 14.6069896 4.511247e-08 Model 2        1
## 9     Weight -7.4026406 2.3985311 -3.0863226 1.151591e-02 Model 2        1
## 10 Cylinders -0.7889962 0.9532042 -0.8277305 4.271348e-01 Model 2        1
## # ... with 30 more rows
…
